/* XPM */
static char * visualclike_xpm[] = {
"48 48 735 2",
"  	c None",
". 	c #5562BA",
"+ 	c #8690DB",
"@ 	c #A2AAE6",
"# 	c #A9B1E9",
"$ 	c #A3ACE6",
"% 	c #8A94DA",
"& 	c #555FAA",
"* 	c #4A58B6",
"= 	c #98A2E4",
"- 	c #BEC4EE",
"; 	c #C5CAF0",
"> 	c #C7CCF0",
", 	c #C5CAEF",
"' 	c #C1C7EF",
") 	c #BBC1ED",
"! 	c #9EA7E5",
"~ 	c #48529C",
"{ 	c #5361C2",
"] 	c #ABB3E9",
"^ 	c #BEC5EE",
"/ 	c #C7CDF0",
"( 	c #C8CEF1",
"_ 	c #C6CBF0",
": 	c #C2C8EF",
"< 	c #B8BFED",
"[ 	c #5A65B5",
"} 	c #3949B5",
"| 	c #96A0E4",
"1 	c #B9C0ED",
"2 	c #C0C6EF",
"3 	c #C4C9EF",
"4 	c #C4CAEF",
"5 	c #C3C9EF",
"6 	c #BBC2ED",
"7 	c #B6BDEC",
"8 	c #AFB6EB",
"9 	c #959FE4",
"0 	c #2E3C9A",
"a 	c #5666D3",
"b 	c #A1AAE7",
"c 	c #B7BEEC",
"d 	c #BCC3EE",
"e 	c #B4BBEC",
"f 	c #B1B8EB",
"g 	c #ACB3EA",
"h 	c #9CA5E4",
"i 	c #4D5ED0",
"j 	c #131B54",
"k 	c #3747B3",
"l 	c #6876D8",
"m 	c #A0A9E7",
"n 	c #B1B9EB",
"o 	c #B5BCEC",
"p 	c #B2BAEB",
"q 	c #B0B8EB",
"r 	c #AEB6EB",
"s 	c #ABB3EA",
"t 	c #A8B0E9",
"u 	c #A4ADE7",
"v 	c #949EE2",
"w 	c #5969D3",
"x 	c #2D3CA9",
"y 	c #4B5BCC",
"z 	c #707EDA",
"A 	c #939EE3",
"B 	c #ABB2E9",
"C 	c #ACB4EA",
"D 	c #ADB4EA",
"E 	c #A7B0E8",
"F 	c #A5AEE8",
"G 	c #A3ACE7",
"H 	c #A0A9E6",
"I 	c #9CA5E5",
"J 	c #8792E0",
"K 	c #5E6DD5",
"L 	c #3E4FCA",
"M 	c #5262D1",
"N 	c #7481DB",
"O 	c #8793E0",
"P 	c #9DA7E6",
"Q 	c #A2ABE7",
"R 	c #A1AAE6",
"S 	c #9FA8E6",
"T 	c #9BA5E5",
"U 	c #99A3E5",
"V 	c #8F9AE2",
"W 	c #7683DB",
"X 	c #616FD6",
"Y 	c #4556CE",
"Z 	c #121951",
"` 	c #5262D2",
" .	c #7380DB",
"..	c #8490DF",
"+.	c #8A96E1",
"@.	c #98A2E5",
"#.	c #97A1E4",
"$.	c #95A0E4",
"%.	c #919CE3",
"&.	c #8F99E2",
"*.	c #8994E1",
"=.	c #7A86DC",
"-.	c #606FD6",
";.	c #4657CE",
">.	c #172067",
",.	c #4E5FD0",
"'.	c #6E7CD9",
").	c #7F8BDD",
"!.	c #8692E0",
"~.	c #8995E1",
"{.	c #8C97E2",
"].	c #8C97E1",
"^.	c #8B96E1",
"/.	c #8591DF",
"(.	c #7F8BDE",
"_.	c #7885DC",
":.	c #6D7BD9",
"<.	c #4253CD",
"[.	c #131C59",
"}.	c #4455CA",
"|.	c #6675D7",
"1.	c #7986DC",
"2.	c #808CDE",
"3.	c #828EDE",
"4.	c #838FDF",
"5.	c #838FDE",
"6.	c #808DDD",
"7.	c #7D89DD",
"8.	c #7985DC",
"9.	c #7582DB",
"0.	c #6977D8",
"a.	c #5867D3",
"b.	c #3C4ECB",
"c.	c #0A0F31",
"d.	c #444DA9",
"e.	c #353E96",
"f.	c #3140AC",
"g.	c #5A69D4",
"h.	c #717EDA",
"i.	c #7B87DD",
"j.	c #808DDE",
"k.	c #8591E0",
"l.	c #7C88DD",
"m.	c #7884DC",
"n.	c #6473D7",
"o.	c #4F5FD1",
"p.	c #2E3EB4",
"q.	c #7F8AD8",
"r.	c #8E98E1",
"s.	c #3944A7",
"t.	c #495ACF",
"u.	c #6674D7",
"v.	c #8894E1",
"w.	c #8893E1",
"x.	c #7B87DC",
"y.	c #5E6ED5",
"z.	c #4254CD",
"A.	c #162067",
"B.	c #6470CC",
"C.	c #9BA4E5",
"D.	c #838EDF",
"E.	c #5362CE",
"F.	c #1B2261",
"G.	c #2C3BA2",
"H.	c #5565D3",
"I.	c #727FDA",
"J.	c #909AE2",
"K.	c #8E99E2",
"L.	c #7E8ADD",
"M.	c #6F7CDA",
"N.	c #2C3CAE",
"O.	c #6A76D2",
"P.	c #8994E0",
"Q.	c #5C6BD4",
"R.	c #242E87",
"S.	c #3443B1",
"T.	c #4152CD",
"U.	c #5D6CD5",
"V.	c #8893E0",
"W.	c #909AE3",
"X.	c #949FE4",
"Y.	c #929CE3",
"Z.	c #7B88DD",
"`.	c #394AC9",
" +	c #111953",
".+	c #374198",
"++	c #5865CA",
"@+	c #7F8CDD",
"#+	c #1D2673",
"$+	c #3C4CB7",
"%+	c #7582DA",
"&+	c #5767D3",
"*+	c #929DE3",
"=+	c #5B6AD4",
"-+	c #4253CC",
";+	c #5968D2",
">+	c #3242B4",
",+	c #434EAF",
"'+	c #636ECE",
")+	c #6573D5",
"!+	c #4956BF",
"~+	c #0B0F30",
"{+	c #2E3B9E",
"]+	c #7784DC",
"^+	c #9AA4E5",
"/+	c #9DA6E6",
"(+	c #828EDF",
"_+	c #5161D1",
":+	c #5766D3",
"<+	c #6978D8",
"[+	c #4859CF",
"}+	c #5362D1",
"|+	c #7581DA",
"1+	c #233195",
"2+	c #353E93",
"3+	c #717DD4",
"4+	c #6C7AD9",
"5+	c #5A68D0",
"6+	c #404CB3",
"7+	c #333FA2",
"8+	c #101541",
"9+	c #5867D1",
"0+	c #9CA6E5",
"a+	c #9EA8E6",
"b+	c #5363D2",
"c+	c #4959CF",
"d+	c #4D5DD0",
"e+	c #5D6CD4",
"f+	c #7380DA",
"g+	c #4354CB",
"h+	c #283490",
"i+	c #6874CF",
"j+	c #3745B5",
"k+	c #080B24",
"l+	c #3241AB",
"m+	c #6B78D8",
"n+	c #6976D5",
"o+	c #5764CE",
"p+	c #5866CE",
"q+	c #7E8ADC",
"r+	c #8D98E2",
"s+	c #7783DB",
"t+	c #6B79D8",
"u+	c #6271D6",
"v+	c #5565D2",
"w+	c #3F51CC",
"x+	c #2A3BB5",
"y+	c #828CD7",
"z+	c #5A6AD3",
"A+	c #1B2371",
"B+	c #4F5FD0",
"C+	c #6A78D7",
"D+	c #4E5CC9",
"E+	c #5966CE",
"F+	c #949EE3",
"G+	c #909BE3",
"H+	c #7C89DD",
"I+	c #717FDA",
"J+	c #6B79D9",
"K+	c #5968D3",
"L+	c #2E40C4",
"M+	c #5461BD",
"N+	c #6776D7",
"O+	c #3541A8",
"P+	c #0A0C1C",
"Q+	c #263390",
"R+	c #5C6AD1",
"S+	c #6270D1",
"T+	c #808CDD",
"U+	c #6A79D9",
"V+	c #6472D7",
"W+	c #5E6DD4",
"X+	c #5464D2",
"Y+	c #4B5CD0",
"Z+	c #384ACA",
"`+	c #2F3FB1",
" @	c #6A78D6",
".@	c #4250BD",
"+@	c #121538",
"@@	c #DAA96B",
"#@	c #E5BE88",
"$@	c #E3BB84",
"%@	c #D8A565",
"&@	c #3A4ABC",
"*@	c #505ECB",
"=@	c #6573D6",
"-@	c #707CD6",
";@	c #6674D6",
">@	c #5B69D1",
",@	c #5866CF",
"'@	c #5766D2",
")@	c #4052CD",
"!@	c #2A3BBD",
"~@	c #3B49B1",
"{@	c #1A2057",
"]@	c #D29A57",
"^@	c #F9D19C",
"/@	c #FEDDAD",
"(@	c #FFDEAE",
"_@	c #FEDEAE",
":@	c #F4CA92",
"<@	c #D59951",
"[@	c #4A5ACE",
"}@	c #4957C7",
"|@	c #6472D6",
"1@	c #7581D8",
"2@	c #8D97E2",
"3@	c #626FD2",
"4@	c #6A76D3",
"5@	c #8A95DF",
"6@	c #929CE1",
"7@	c #6773D3",
"8@	c #5161D0",
"9@	c #4E5ED0",
"0@	c #2F41C5",
"a@	c #1B2571",
"b@	c #D5964B",
"c@	c #F8C07A",
"d@	c #FAC380",
"e@	c #FBC685",
"f@	c #FBC787",
"g@	c #FBC786",
"h@	c #FBC584",
"i@	c #FAC27F",
"j@	c #F7BE78",
"k@	c #D29042",
"l@	c #4452C5",
"m@	c #7682D9",
"n@	c #8A94E1",
"o@	c #7985DB",
"p@	c #6C78D5",
"q@	c #6471D2",
"r@	c #5C69CF",
"s@	c #939EE4",
"t@	c #505FCE",
"u@	c #4E5FD1",
"v@	c #3547C9",
"w@	c #182477",
"x@	c #AE7028",
"y@	c #EEA34C",
"z@	c #F0A854",
"A@	c #F2AE5D",
"B@	c #F3B061",
"C@	c #F3B162",
"D@	c #F3B060",
"E@	c #F2AD5B",
"F@	c #F0A752",
"G@	c #EA9F48",
"H@	c #202C81",
"I@	c #4653C5",
"J@	c #5A69D3",
"K@	c #818DDE",
"L@	c #97A2E4",
"M@	c #7883D7",
"N@	c #6A76D1",
"O@	c #6470D0",
"P@	c #6975D3",
"Q@	c #6E79D4",
"R@	c #5865CC",
"S@	c #6A77D6",
"T@	c #7A87DC",
"U@	c #4A5ACD",
"V@	c #3A4BCB",
"W@	c #202E9A",
"X@	c #CD812A",
"Y@	c #E08E2F",
"Z@	c #E79536",
"`@	c #EA9A3D",
" #	c #EA9C3F",
".#	c #EB9C40",
"+#	c #EA9A3C",
"@#	c #E69435",
"##	c #DF8D2E",
"$#	c #C67D29",
"%#	c #28369C",
"&#	c #4C58C6",
"*#	c #5E6CD4",
"=#	c #7F8CDE",
"-#	c #8792DE",
";#	c #6A78D8",
">#	c #7783DC",
",#	c #4656CB",
"'#	c #3D4FCC",
")#	c #2434AB",
"!#	c #B97526",
"~#	c #C37B27",
"{#	c #D0832A",
"]#	c #D7872B",
"^#	c #D9892B",
"/#	c #DA892C",
"(#	c #D9892C",
"_#	c #D9882B",
":#	c #D6872B",
"<#	c #CE8129",
"[#	c #C07927",
"}#	c #B77325",
"|#	c #2A39A5",
"1#	c #5461CA",
"2#	c #5A69D2",
"3#	c #8691E0",
"4#	c #6F7DDA",
"5#	c #6270D4",
"6#	c #4454CB",
"7#	c #4C5CCF",
"8#	c #3E4FCC",
"9#	c #2739B8",
"0#	c #A36722",
"a#	c #AB6B23",
"b#	c #B77425",
"c#	c #BD7727",
"d#	c #BE7827",
"e#	c #BF7827",
"f#	c #BC7726",
"g#	c #B57225",
"h#	c #A86A23",
"i#	c #A46722",
"j#	c #2938A4",
"k#	c #6572D4",
"l#	c #4A58C8",
"m#	c #6170D5",
"n#	c #4F5FCF",
"o#	c #4554CA",
"p#	c #5564D0",
"q#	c #4C5BCC",
"r#	c #5261CF",
"s#	c #4958CC",
"t#	c #4F5ECF",
"u#	c #4A5BD0",
"v#	c #2839B9",
"w#	c #9A6220",
"x#	c #9B6220",
"y#	c #A76922",
"z#	c #AE6D23",
"A#	c #B06E24",
"B#	c #B06F24",
"C#	c #AF6E24",
"D#	c #AD6D23",
"E#	c #A56822",
"F#	c #9A6120",
"G#	c #9D6321",
"H#	c #24339F",
"I#	c #4A5BCF",
"J#	c #6371D6",
"K#	c #4F5CC9",
"L#	c #4B5ACA",
"M#	c #5564D1",
"N#	c #5866D0",
"O#	c #6371D5",
"P#	c #6877D8",
"Q#	c #6270D6",
"R#	c #5F6ED5",
"S#	c #5362D2",
"T#	c #4D5ED1",
"U#	c #3A4CCB",
"V#	c #2537B4",
"W#	c #8E5A1E",
"X#	c #955F1F",
"Y#	c #9C6321",
"Z#	c #9E6421",
"`#	c #9F6521",
" $	c #945E1F",
".$	c #19257B",
"+$	c #3547C8",
"@$	c #5B69D0",
"#$	c #5361CD",
"$$	c #515FCC",
"%$	c #5E6CD1",
"&$	c #6C79D7",
"*$	c #2130A1",
"=$	c #83521B",
"-$	c #88561D",
";$	c #83531C",
">$	c #8A571D",
",$	c #905B1E",
"'$	c #8F5B1E",
")$	c #8D5A1E",
"!$	c #89571D",
"~$	c #82531C",
"{$	c #8C591D",
"]$	c #16206A",
"^$	c #2F40BB",
"/$	c #5061D1",
"($	c #727FDB",
"_$	c #6574D7",
":$	c #5A6AD4",
"<$	c #5564D2",
"[$	c #4354CD",
"}$	c #3749CA",
"|$	c #2C3EC3",
"1$	c #2232A4",
"2$	c #0D133F",
"3$	c #945D1F",
"4$	c #7E501B",
"5$	c #794C1B",
"6$	c #7B4E1B",
"7$	c #7C4F1B",
"8$	c #7A4E1B",
"9$	c #81521C",
"0$	c #965F1F",
"a$	c #151F64",
"b$	c #2A3AAB",
"c$	c #3A4CC9",
"d$	c #5868D3",
"e$	c #5C6CD5",
"f$	c #4758CE",
"g$	c #3E50CC",
"h$	c #3346C8",
"i$	c #2A3CBD",
"j$	c #1F2E97",
"k$	c #101850",
"l$	c #030510",
"m$	c #945C20",
"n$	c #784C1A",
"o$	c #744A1A",
"p$	c #754A1A",
"q$	c #7A4D1B",
"r$	c #87551D",
"s$	c #92601E",
"t$	c #080C29",
"u$	c #141D5F",
"v$	c #202E8C",
"w$	c #2C3BAC",
"x$	c #3344BC",
"y$	c #3849C6",
"z$	c #3A4BC9",
"A$	c #394BC9",
"B$	c #3748C8",
"C$	c #3244C2",
"D$	c #2B3CB5",
"E$	c #2333A1",
"F$	c #1A267D",
"G$	c #101851",
"H$	c #060920",
"I$	c #87561D",
"J$	c #070B26",
"K$	c #080C2A",
"L$	c #090D2B",
"M$	c #070A23",
"N$	c #03040E",
"O$	c #86324F",
"P$	c #D27797",
"Q$	c #E79BB6",
"R$	c #EBA3BD",
"S$	c #E79AB6",
"T$	c #D17495",
"U$	c #B34469",
"V$	c #73C747",
"W$	c #A2DC81",
"X$	c #BBE7A1",
"Y$	c #BEE9A4",
"Z$	c #B6E49A",
"`$	c #8FD46B",
" %	c #67C238",
".%	c #BA456D",
"+%	c #DF7299",
"@%	c #E1779D",
"#%	c #E17A9F",
"$%	c #E27B9F",
"%%	c #E1779C",
"&%	c #BB426C",
"*%	c #7DC953",
"=%	c #9CDA79",
"-%	c #9EE078",
";%	c #9FE478",
">%	c #A0E478",
",%	c #9FE378",
"'%	c #9DDE78",
")%	c #99D676",
"!%	c #63BE33",
"~%	c #AB2855",
"{%	c #D64678",
"]%	c #D74C7D",
"^%	c #D95382",
"/%	c #D95684",
"(%	c #D95784",
"_%	c #D85382",
":%	c #D64578",
"<%	c #AD2755",
"[%	c #60BA30",
"}%	c #7CCA51",
"|%	c #7FD450",
"1%	c #83DB51",
"2%	c #84DD53",
"3%	c #85DD53",
"4%	c #84DD52",
"5%	c #82D951",
"6%	c #7ED050",
"7%	c #7BC650",
"8%	c #50B31D",
"9%	c #BE2258",
"0%	c #CA275F",
"a%	c #CF2E65",
"b%	c #D1336A",
"c%	c #D1356A",
"d%	c #D1356B",
"e%	c #D13369",
"f%	c #C9265E",
"g%	c #BC2256",
"h%	c #5EB62F",
"i%	c #62C230",
"j%	c #67CD31",
"k%	c #6BCE36",
"l%	c #6ECE37",
"m%	c #6ECE38",
"n%	c #6DCE37",
"o%	c #6ACE34",
"p%	c #65CA30",
"q%	c #60BC30",
"r%	c #54B023",
"s%	c #911942",
"t%	c #A11C49",
"u%	c #AD1E4F",
"v%	c #B82054",
"w%	c #BD2156",
"x%	c #BE2156",
"y%	c #BC2156",
"z%	c #B72053",
"A%	c #AC1E4E",
"B%	c #41A40D",
"C%	c #49A818",
"D%	c #4EB718",
"E%	c #54BE1D",
"F%	c #58BE21",
"G%	c #59BE22",
"H%	c #57BE20",
"I%	c #52BD1B",
"J%	c #4CB118",
"K%	c #48A618",
"L%	c #84173C",
"M%	c #86173D",
"N%	c #921942",
"O%	c #9C1B47",
"P%	c #A01C49",
"Q%	c #85173D",
"R%	c #84173D",
"S%	c #389907",
"T%	c #38990A",
"U%	c #3EA80B",
"V%	c #44AC10",
"W%	c #47AC13",
"X%	c #47AC14",
"Y%	c #48AC14",
"Z%	c #47AC12",
"`%	c #42AC0E",
" &	c #3CA30A",
".&	c #389709",
"+&	c #7C1539",
"@&	c #771536",
"#&	c #81163B",
"$&	c #8A183F",
"%&	c #8E1840",
"&&	c #8F1941",
"*&	c #8F1841",
"=&	c #80163B",
"-&	c #7D1539",
";&	c #339105",
">&	c #308A07",
",&	c #359708",
"'&	c #3B9A0D",
")&	c #3E9A10",
"!&	c #3D9A0F",
"~&	c #399A0B",
"{&	c #339207",
"]&	c #308A06",
"^&	c #7B1538",
"/&	c #6E1332",
"(&	c #711434",
"_&	c #7F163A",
":&	c #7A1538",
"<&	c #711433",
"[&	c #328F05",
"}&	c #2C7D07",
"|&	c #2E8308",
"1&	c #33890B",
"2&	c #36890F",
"3&	c #378910",
"4&	c #37890F",
"5&	c #35890E",
"6&	c #318809",
"7&	c #2C7F08",
"8&	c #2D8206",
"9&	c #6D1331",
"0&	c #62112D",
"a&	c #68122F",
"b&	c #701433",
"c&	c #6D1332",
"d&	c #2A7807",
"e&	c #276F08",
"f&	c #2A7709",
"g&	c #2D790C",
"h&	c #2F790E",
"i&	c #2E790D",
"j&	c #2C790B",
"k&	c #297409",
"l&	c #266E08",
"m&	c #2E8405",
"n&	c #741435",
"o&	c #60112C",
"p&	c #581028",
"q&	c #5C102A",
"r&	c #5F102B",
"s&	c #5F112C",
"t&	c #5E102B",
"u&	c #2E8505",
"v&	c #246708",
"w&	c #226209",
"x&	c #246609",
"y&	c #25690A",
"z&	c #26690A",
"A&	c #25680A",
"B&	c #236409",
"C&	c #226108",
"D&	c #277007",
"E&	c #701333",
"F&	c #530E25",
"G&	c #500E24",
"H&	c #530E26",
"I&	c #5F112B",
"J&	c #6F1333",
"K&	c #2C7D05",
"L&	c #236308",
"M&	c #1F5809",
"N&	c #1E5609",
"O&	c #205A08",
"P&	c #266C07",
"Q&	c #2D8205",
"R&	c #6A1231",
"S&	c #61112C",
"T&	c #5D102B",
"U&	c #6B1231",
"V&	c #297606",
"W&	c #256907",
"X&	c #246607",
"Y&	c #266E07",
"Z&	c #2B7B06",
"                                                                                                ",
"                    . + @ # $ % &                                                               ",
"                * = - ; > > , ' ) ! ~                                                           ",
"              { ] ^ ; / ( / _ : ^ < # [                                                         ",
"            } | 1 2 3 , 4 5 ' ^ 6 7 8 9 0                                                       ",
"            a b c - ^ ^ d ) 1 c e f g h i j                                                     ",
"          k l m n o 7 o e p q r s t u v w x                                                     ",
"          y z A B C D C s # E F G H I J K L                                                     ",
"          M N O P G Q Q R S P T U | V W X Y Z                                                   ",
"          `  ...+.| @.= #.$.A %.&.*.=.z -.;.>.                                                  ",
"          ,.'.)...!.~.{.].^.*./.(._.N :.K <.[.                                                  ",
"          }.|.1.2.3.3.4.5.3.6.7.8.9.z 0.a.b.c.          d.e.                                    ",
"          f.g.h.i.j.3...k.4.3.2.l.m.z n.o.p.          q.G r.s.                                  ",
"            t.u._.j...O v.v.w.k.j.x.z y.z.A.        B.C.#.D.E.F.                                ",
"            G.H.I.2.O {.&.J.K.^.!.L.M.` N.          O.P.L.N Q.R.                                ",
"            S.T.U._.V.W.X.#.| Y.*.Z.K `. +        .+++x.@+L.u.#+                                ",
"          $+L.%+Y &+N V.*+| X.].=.=+-+;+>+      ,+'+)+_.L.=.!+~+                                ",
"        {+]+^+/+(+_+Y :+<+I.:.=+[+}+|+ .=+1+  2+3+].4+5+6+7+8+                                  ",
"        9+K.= 0+a+P.:.b+c+t.d+e+f+x.=. .u.g+h+i+K.4.<+j+k+                                      ",
"      l+m+n+o+p+q+= r+2.]+N s+8.m.I.t+u+v+w+x+y+J W z+A+                                        ",
"      B+C+D+I.W E+F+G+v.3.H+_.I+J+n.K K+` Y L+M+l.N+O+P+                                        ",
"    Q+u+p+R+..J.S+%.Y.{.k.T+8.I+U+V+W+K+X+Y+Z+`+ @.@+@        @@#@$@%@                          ",
"    &@4+*@=@+.C.-@V &.+...).m.z ;@>@,@'@X+d+)@!@~@{@      ]@^@/@(@_@/@:@<@                      ",
"    [@I.}@|@*.T 1@r+2@v.3.H+W 3@4@5@6@7@8@9@Y 0@a@      b@c@d@e@f@g@h@i@j@k@                    ",
"    b+N l@W+..= m@n@~.4.o@p@q@r@^.C.b s@t@u@[+v@w@    x@y@z@A@B@C@C@D@E@F@G@                    ",
"  H@K+W I@J@K@L@M@N@O@q@P@Q@R@S@7.2.T@I+U@,.t.V@W@    X@Y@Z@`@ #.#.# #+#@###$#                  ",
"  %#Q.9.&#*#=##.| -#P.2@V !.;#>#=#L. .X+,#u@Y+'#)#    !#~#{#]#^#/#(#_#:#<#[#}#                  ",
"  |#g.I.1#2#I.3#r+^.V.4.l.4#=+5#1.).4+6#7#u@Y+8#9#    0#a#b#c#d#e#e#e#f#g#h#i#                  ",
"  j#a '.k#l#m#4#_.8.W z n.n#o#p#q#r#s#t#_+i u#8#v#    w#x#y#z#A#B#B#C#D#E#F#G#                  ",
"  H#I#J#4+K#L#u+l m#M#t@N#O#z 4#P#Q#R#g.S#T#[+U#V#    w#W#X#Y#Z#`#`#Z#x# $W#G#                  ",
"  .$+$9@U.|.@$#$$$%$&$s+m.9.I+:.<+V+R#w _+[+8#0@*$    =$-$;$>$W#,$'$)$!$~${$                    ",
"    ]$^$T./$R#<+'.I+ .($4#:.0._$-.:$<$d+[$}$|$1$2$      3$4$5$6$7$7$8$5$9$0$                    ",
"        a$b$c$[+b+d$Q.e$U.=+&+b+i f$g$h$i$j$k$l$          m$;$n$o$p$q$r$s$                      ",
"            t$u$v$w$x$y$z$A$B$C$D$E$F$G$H$                      I$-$                            ",
"                      J$K$L$t$M$N$          O$P$Q$R$S$T$U$                V$W$X$Y$Z$`$ %        ",
"                                          .%+%@%#%$%#%%%+%&%            *%=%-%;%>%,%'%)%!%      ",
"                                        ~%{%]%^%/%(%/%_%]%:%<%        [%}%|%1%2%3%4%5%6%7%8%    ",
"                                        9%0%a%b%c%d%c%e%a%f%g%        h%i%j%k%l%m%n%o%p%q%r%    ",
"                                      s%t%u%v%w%x%x%x%y%z%A%t%s%    B%C%D%E%F%G%G%G%H%I%J%K%    ",
"                                      L%M%N%O%P%t%P%P%P%O%s%Q%R%    S%T%U%V%W%X%W%Y%Z%`% &.&    ",
"                                      +&@&#&$&%&&&*&*&%&$&=&@&-&    ;&>&,&'&)&)&)&)&!&~&{&]&    ",
"                                      ^&/&(&^&_&=&#&=&_&:&<&/&      [&}&|&1&2&3&3&4&5&6&7&8&    ",
"                                        9&0&a&/&b&b&b&c&a&0&/&        d&e&f&g&h&h&i&j&k&l&m&    ",
"                                        n&o&p&q&r&s&t&q&p&o&          u&v&w&x&y&z&A&B&C&D&      ",
"                                          E&t&F&G&G&G&H&I&J&            K&L&M&N&N&N&O&P&Q&      ",
"                                              R&S&T&0&U&                    V&W&X&Y&Z&          ",
"                                                                                                ",
"                                                                                                "};
